11 27 05 29 14 36
16 35 34 31 02 19
27 30 22 13 14 38
43 26 19 25 27 02
34 21 02 33 06 18
07 38 01 10 02 09
01 14 39 06 05 20
14 38 08 36 23 39
19 08 04 18 44 39
04 40 39 34 27 08
14 18 20 28 23 36
37 22 33 36 27 02
19 33 06 09 18 25
08 16 41 44 11 07
21 08 40 25 39 44
17 27 18 10 19 23
40 18 05 13 23 45
11 12 05 27 04 24
08 16 30 43 25 42
35 30 08 13 40 06
02 32 45 16 17 39
01 19 02 06 42 16
16 15 34 28 09 21
13 45 39 30 07 41
26 07 35 01 19 27
07 03 06 39 21 20
14 33 26 43 13 40
22 09 45 31 02 25
42 07 01 12 23 15
44 38 31 43 19 28
21 17 08 27 31 24
23 34 01 04 02 31
18 35 21 15 32 44
41 39 20 19 09 12
27 11 12 20 04 10
13 11 33 26 29 25
07 06 16 15 31 20
37 38 22 03 44 16
07 22 18 31 34 24
22 32 15 25 23 06
15 26 21 14 18 35
43 18 21 11 36 37
45 08 18 17 24 39
40 15 32 24 33 31
17 05 23 13 36 28
01 04 16 26 40 41
09 43 24 45 41 02
23 16 21 24 30 05
28 37 13 43 19 38
42 03 33 41 22 21
41 03 31 04 11 07
12 26 29 11 16 44
13 15 41 03 44 40
26 06 38 27 05 39
21 31 16 26 36 43
07 37 40 44 39 38
16 31 14 03 07 40
43 40 19 14 39 10
36 32 25 08 19 28
07 29 27 19 42 18
23 39 04 09 33 44
03 20 38 27 12 02
09 06 37 11 05 15
03 38 42 05 19 08
20 36 44 10 33 41
44 05 06 38 17 11
28 06 11 02 17 04
37 43 15 42 17 25
15 14 24 32 27 12
29 07 38 33 20 08
40 26 27 41 11 18
35 10 13 07 31 09
28 31 45 21 08 36
44 17 07 29 10 33
09 10 31 14 25 27
01 45 11 18 15 08
39 17 45 01 34 08
36 41 24 12 15 44
04 05 25 12 37 06
03 26 05 07 14 34
04 29 42 19 32 10
27 21 44 43 24 29
35 27 17 23 43 38
20 27 28 13 06 40
11 39 17 15 25 01
12 28 40 38 06 07
07 15 43 12 25 24
13 42 01 08 28 10
05 35 22 34 23 15
36 17 19 38 30 07
34 38 25 24 33 39
45 15 35 43 27 33
15 11 36 32 14 03
34 28 06 42 11 01
33 07 43 15 20 25
34 38 26 04 18 33
01 38 16 34 18 07
02 08 11 39 33 05
21 33 03 37 11 13
05 21 08 16 29 04
29 11 30 23 28 44
14 36 38 16 10 03
26 24 16 03 13 29
44 31 10 33 41 28
04 33 01 08 42 23
45 28 22 17 06 01
04 10 28 30 03 06
24 12 19 44 02 39
19 16 02 45 34 10
39 44 30 18 36 10
04 24 33 03 09 25
24 37 11 35 15 45
31 33 30 17 45 20
23 19 02 05 18 15
07 22 37 01 33 40
27 33 07 44 02 41
13 29 02 06 30 16
32 19 02 25 11 28
32 39 20 23 11 04
08 19 04 43 13 20
34 12 29 36 01 37
43 41 35 28 01 44
21 39 12 43 30 14
20 35 36 33 30 44
37 02 33 35 08 41
06 43 07 21 19 41
01 11 23 21 44 34
31 08 07 10 21 19
10 06 37 03 30 34
45 17 21 26 36 11
10 04 14 15 22 18
42 45 07 25 02 13
32 27 05 04 17 02
24 32 35 40 11 33
45 37 41 16 38 06
13 37 05 27 10 41
17 27 21 18 11 02
15 18 27 24 41 13
28 27 43 38 23 42
29 34 07 35 33 22
08 09 19 16 04 17
21 27 44 45 34 05
08 10 36 37 40 13